         free-stream properties (before shock)
 
             pressure [pa]               temperature [k]              density [kg/m3]
                    1197.                         226.5                      0.01841
 
            velocity [m/s]                   mach number         speed of sound [m/s]
                  2111.72                          7.00                        301.67
 
           enthalpy [j/kg]        internal energy [j/kg]          total pressure [pa]
               2.2752E+05                    1.6251E+05                   4.9554E+06
 
                cp [j/kgk]                    cv [j/kgk]                    gamma
                    1005.                          718.                       1.40000
 ______________________________________________________________________________________________________
 ______________________________________________________________________________________________________
 
         normal shock with calorically perfect gas
 
                        p2/p1                t2/t1             rho2/rho1
ratios                 57.000               10.469                 5.444
 --------------------------------------------------------------------------------------
 
                      p2 [pa]               t2 [k]          rho2 [kg/m3]
                       68229.               2371.3               0.10025
 
                     v2 [m/s]                   m2              a2 [m/s]
                       387.87                 0.40                976.11
 
                    h2 [j/kg]
                    2381987.
 
           total pressure [pa]                  entropy increase [j/kgk]
                       76072.                                     1199.
