         free-stream properties (before shock)
 
             pressure [pa]               temperature [k]              density [kg/m3]
                    1197.                         226.5                      0.01841
 
            velocity [m/s]                   mach number         speed of sound [m/s]
                  2111.72                          7.00                        301.67
 
           enthalpy [j/kg]        internal energy [j/kg]          total pressure [pa]
               2.2752E+05                    1.6251E+05                   4.9554E+06
 
                cp [j/kgk]                    cv [j/kgk]                    gamma
                    1005.                          718.                       1.40000
 ______________________________________________________________________________________________________
 ______________________________________________________________________________________________________
 
         normal shock with air in chemical equilibrium
 
                        p2/p1                t2/t1             rho2/rho1            h2/h1            e2/e1
ratios                 58.780                9.203                 6.340           10.556           11.070
 --------------------------------------------------------------------------------------
 
                      p2 [pa]               t2 [k]          rho2 [kg/m3]
                       70359.               2084.4               0.11674
 
                     v2 [m/s]                   m2              a2 [m/s]
                       333.08                 0.38                873.50
 
                    h2 [j/kg]                   e2
                     2401737.             1799057.
 
